{"新闻资讯": 1, 
     "生活": 2, 
   "段子手": 3, 
     "汽车": 4, 
     "时尚": 5, 
 "美容美妆": 6, 
       "IT": 7, 
   "互联网": 7, 
     "电商": 8, 
 "科技数码": 9, 
     "母婴": 10, 
     "育儿": 10, 
 "教育培训": 11, 
 "健康养生": 12, 
 "家居房产": 13, 
     "美食": 14,
 "游戏动漫": 15, 
 "娱乐八卦": 16, 
     "旅游": 17, 
     "摄影": 17, 
 "影视音乐": 18, 
 "金融财经": 19, 
     "广告": 20, 
     "营销": 20, 
     "职场": 21, 
     "管理": 21, 
     "艺人": 22, 
     "名人": 22, 
     "星座": 23, 
     "情感": 23, 
 "文化创意": 24, 
 "体育健身": 25, 
     "其他": 26}