{
    // 沃米指数趋势，从当前日期往前30天，以日期为键（连续30天）
    "month_wom_index_trend": [  //month_wom_index_rank
        {
            "20161221": 1345,   //name:value
        },
        {
            "20161220": 1345,
        },
        {
            "20161219": 1345,
        },
    ],
    // 排名变化趋势，各个类别下从当前往前30天排名（连续30天）
    "month_rank_trend": {   //rank_trend
        "0": [  //rank_1000  总分类
            {
                "20161221": 756     //name:value
            },
            {
                "20161220": 756
            }
        ],
        "23": [     //rank_1023 第23个分类，其他依次类推
            {
                "20161221": 756
            },
            {
                "20161220": 456
            },
            {
                "20161219": 3456
            },
        ]
    },
}
// 文章效果数据
{
    "month_article_effect": {
        // 头条文章阅读 效果，以日期为键值，如果哪天没发布文章，则跳过这一天，即不存在这个键值
        "month_head_article_trend": {   
            "20161220": {
                "like_num": 25,     //20161220_head_like_avg_cnt
                "view_num": 4567,   //20161220_head_view_avg_cnt
            }
        },
        // 次条文章阅读效果,以日期为键值，如果哪天没发布文章，则跳过这一天
        "month_next_article_trend": {
            "20161220": {
                "like_num": 25,     //20161220_many_second_like_avg_cnt
                "view_num": 4567,   //20161220_many_second_view_avg_cnt
            }
        },
        // 统计数据，
        "month_statistics": {
            "head_article": {
                "month_read_num": 3456, // 该账号30天内发布所有头条文章阅读数的中位数 head_view_median
                "month_like_num": 345, // 该账号30天内发布所有头条文章点赞数的中位数    head_like_median
                "month_max_read_num": 5678, // 该账号30天内发布所有头条文章的最大阅读数    head_highest_view_num
                "month_max_like_num": 756, // 该账号30天内发布所有头条文章的最大点赞数     head_highest_like_num
                "month_gte_10w_articles": 1234, //该账号30天内发布所有头条文章中阅读数达到10W+的篇数    head_10w_article_total_cnt
            },
            "next_article": {
                "month_read_num": 3456, // 该账号30天内发布所有次条文章阅读数的中位数   multil_pos2_view_median
                "month_like_num": 345, // 该账号30天内发布所有次条文章点赞数的中位数    multil_pos2_like_median
                "month_max_read_num": 5678, // 该账号30天内发布所有次条文章的最大阅读数    multil_pos2_highest_view_num
                "month_max_like_num": 756, // 该账号30天内发布所有次条文章的最大点赞数     multil_pos2_highest_like_num
                "month_gte_10w_articles": 1234, //该账号30天内发布所有次条文章中阅读数达到10W+的篇数    multil_pos2_10w_article_total_cnt
            },
        },
    }
}
// 运营状况
{

    "operational_status": {
        "month_post_articles_count": 234, // 30天发文总量    article_total_cnt
        "month_post_count": 29, // 发布文章次数   pub_total_cnt
        "month_article_per_post": 5, // 每次发文数，向上取整  article_avg_pub_cnt
        "month_single_avg_read_num": 1234, // 月单图文平均阅读数     single_avg_view_cnt
        "month_multi_pos_1_avg_read_num": 1234, // 月多图文第一条平均阅读数     multil_pos1_avg_view_cnt
        "month_multi_pos_2_avg_read_num": 1234, // 月多图文第二条平均阅读数     multil_pos2_avg_view_cnt
        "month_multi_pos_3n_avg_read_num": 1234, // 月多图文3-N条平均阅读数       multil_pos3_avg_view_cnt
        // 30天发稿量趋势，如果哪天没法搞，则为0
        "month_post_trend": {
            "21061220": 3,  //21061220_day_of_month_article_cnt
            "21061219": 7,  //21061219_day_of_month_article_cnt
            "21061218": 7,
            "21061217": 0,
            "20161120": 3
        },
        // 发布时间日分布 0~24点每个小时点总共发布的文章数。5点半到6点半之间发布认为是6时这个时段的，其他以此类推
        "month_post_time_hour_distribute": {
            "0": 4,     //0_hour_of_day_article_cnt
            "2": 0,     //2_hour_of_day_article_cnt
            "3": 0,
            "23": 12,
        },
        // 发布时间周分布  30天内在周一至周日发布的平均文章数 30天内在周一发布的文章数目除以在周一发布文章的次数
        // 例如：30天内至少有4个周一，但是只在其中三个周一发了78篇文章，那么平均周一的发文数就是 78 / 3 (向上取整)
        "month_post_time_week_distribute": {
            "1": 12,    //1_day_of_week_article_avg_cnt
            "2": 0,     //2_hour_of_day_article_cnt
            "7": 4,
        }
    },
}