article_20161129_18.csv:autohomeweixin,1478319782,1,1,100001,2385,50,1478404429,581ea9be0c5d551bebb5b03c
article_20161129_18.csv:autohomeweixin,1478131307,1,8,100001,72,2,1478404431,581ea9c10c5d551bebb5b049
article_20161129_18.csv:autohomeweixin,1478131307,1,7,66092,805,33,1478404435,581ea9c40c5d551bebb5b05d
article_20161129_18.csv:autohomeweixin,1478131307,1,6,100001,1134,50,1478404437,581ea9c70c5d551bebb5b069
article_20161129_18.csv:autohomeweixin,1478131307,1,5,100001,1696,50,1478404440,581ea9ca0c5d551bebb5b072
article_20161129_18.csv:autohomeweixin,1478131307,1,4,100001,1013,50,1478404443,581ea9cd0c5d551bebb5b07c
article_20161129_18.csv:autohomeweixin,1478131307,1,3,100001,1095,50,1478404453,581ea9d70c5d551bebb5b098
article_20161129_18.csv:autohomeweixin,1478131307,1,2,100001,4028,50,1478404456,581ea9da0c5d551bebb5b0a9
article_20161129_18.csv:autohomeweixin,1478131307,1,1,100001,2255,50,1478404459,581ea9dd0c5d551bebb5b0b9
article_20161129_18.csv:autohomeweixin,1478218162,1,8,100001,1357,48,1478404463,581ea9e10c5d551bebb5b0c9
article_20161129_18.csv:autohomeweixin,1478218162,1,7,83082,1439,50,1478404466,581ea9e40c5d551bebb5b0d3
article_20161129_18.csv:autohomeweixin,1478218162,1,6,62326,442,17,1478404471,581ea9e90c5d551bebb5b0e0
article_20161129_18.csv:autohomeweixin,1478218162,1,5,100001,1969,50,1478404474,581ea9ec0c5d551bebb5b0e7
article_20161129_18.csv:autohomeweixin,1478218162,1,4,100001,389,23,1478404477,581ea9ef0c5d551bebb5b0ef
article_20161129_18.csv:autohomeweixin,1478218162,1,3,100001,1101,29,1478404480,581ea9f20c5d551bebb5b0fe
article_20161129_18.csv:autohomeweixin,1478218162,1,2,100001,3167,50,1478404484,581ea9f60c5d551bebb5b10c
article_20161129_18.csv:autohomeweixin,1478218162,1,1,100001,2008,50,1478404488,581ea9fa0c5d551bebb5b116
article_20161129_18.csv:autohomeweixin,1478319782,1,8,99825,1600,50,1478404492,581ea9fe0c5d551bebb5b11c
article_20161129_18.csv:autohomeweixin,1478319782,1,7,59573,842,20,1478404495,581eaa010c5d551bebb5b120
article_20161129_18.csv:autohomeweixin,1478319782,1,6,68389,287,18,1478404498,581eaa040c5d551bebb5b125
article_20161129_18.csv:autohomeweixin,1478319782,1,5,54244,388,50,1478404504,581eaa0a0c5d551bebb5b134
article_20161129_18.csv:autohomeweixin,1478319782,1,4,100001,1151,50,1478404507,581eaa0d0c5d551bebb5b13f
article_20161129_18.csv:autohomeweixin,1478319782,1,3,100001,566,50,1478404510,581eaa100c5d551bebb5b14d
article_20161129_18.csv:autohomeweixin,1478319782,1,2,57312,393,5,1478404513,581eaa130c5d551bebb5b158
article_20161129_9.csv:autohomeweixin,1477008229,1,3,100001,2080,1,1477209773,580c6eadfcd3d486b6a7c313
article_20161129_9.csv:autohomeweixin,1477008229,1,2,97144,361,12,1477209781,580c6eb5fcd3d486b6a7c337
article_20161129_9.csv:autohomeweixin,1477008229,1,1,100001,5843,50,1477209788,580c6ebcfcd3d486b6a7c353
article_20161129_9.csv:autohomeweixin,1477108681,1,8,55174,1120,45,1477209791,580c6ebffcd3d486b6a7c361
article_20161129_9.csv:autohomeweixin,1477108681,1,7,30854,679,38,1477209797,580c6ec5fcd3d486b6a7c37b
article_20161129_9.csv:autohomeweixin,1477108681,1,6,56915,361,6,1477209801,580c6ec9fcd3d486b6a7c38b
article_20161129_9.csv:autohomeweixin,1477108681,1,5,93950,1070,9,1477209806,580c6ecefcd3d486b6a7c39f
article_20161129_9.csv:autohomeweixin,1477108681,1,4,87872,763,9,1477209810,580c6ed2fcd3d486b6a7c3aa
article_20161129_9.csv:autohomeweixin,1477108681,1,3,97812,396,21,1477209814,580c6ed6fcd3d486b6a7c3b8
article_20161129_9.csv:autohomeweixin,1477108681,1,2,100001,1165,42,1477209821,580c6eddfcd3d486b6a7c3d3
article_20161129_9.csv:autohomeweixin,1477108681,1,1,100001,1205,46,1477209827,580c6ee3fcd3d486b6a7c3e8
article_20161129_9.csv:autohomeweixin,1477194951,1,8,42520,303,20,1477209831,580c6ee7fcd3d486b6a7c3fd
article_20161129_9.csv:autohomeweixin,1477194951,1,7,41360,492,47,1477209837,580c6eedfcd3d486b6a7c410
article_20161129_9.csv:autohomeweixin,1477194951,1,6,45393,257,7,1477209845,580c6ef5fcd3d486b6a7c431
article_20161129_9.csv:autohomeweixin,1477194951,1,5,36921,115,3,1477209848,580c6ef8fcd3d486b6a7c43f
article_20161129_9.csv:autohomeweixin,1477194951,1,4,54692,448,12,1477209854,580c6efefcd3d486b6a7c456
article_20161129_9.csv:autohomeweixin,1477194951,1,3,39686,428,5,1477209858,580c6f02fcd3d486b6a7c467
article_20161129_9.csv:autohomeweixin,1477194951,1,2,100001,1229,24,1477209861,580c6f05fcd3d486b6a7c470
article_20161129_9.csv:autohomeweixin,1477194951,1,1,100001,968,50,1477209865,580c6f09fcd3d486b6a7c47d
article_20161129_9.csv:autohomeweixin,1476922383,1,7,85532,764,2,1477209869,580c6f0dfcd3d486b6a7c48a
article_20161129_9.csv:autohomeweixin,1476922383,1,6,85861,757,0,1477209872,580c6f10fcd3d486b6a7c496
article_20161129_9.csv:autohomeweixin,1476922383,1,5,100001,800,19,1477209876,580c6f14fcd3d486b6a7c4a4
article_20161129_9.csv:autohomeweixin,1476922383,1,4,98316,408,37,1477209881,580c6f19fcd3d486b6a7c4b6
article_20161129_9.csv:autohomeweixin,1476922383,1,3,100001,1747,50,1477209886,580c6f1ffcd3d486b6a7c4ca
article_20161129_9.csv:autohomeweixin,1476922383,1,2,71395,946,10,1477209894,580c6f26fcd3d486b6a7c4e8
article_20161129_9.csv:autohomeweixin,1476922383,1,1,100001,6143,50,1477209899,580c6f2bfcd3d486b6a7c4f7
article_20161129_9.csv:autohomeweixin,1477008229,1,8,43683,557,1,1477209913,580c6f39fcd3d486b6a7c526
article_20161129_9.csv:autohomeweixin,1477008229,1,7,39768,417,2,1477209917,580c6f3dfcd3d486b6a7c531
article_20161129_9.csv:autohomeweixin,1477008229,1,6,52267,420,0,1477209921,580c6f41fcd3d486b6a7c542
article_20161129_9.csv:autohomeweixin,1477008229,1,5,100001,904,1,1477209925,580c6f45fcd3d486b6a7c552
article_20161129_9.csv:autohomeweixin,1477008229,1,4,95515,795,16,1477209930,580c6f4afcd3d486b6a7c564
article_20161129_9.csv:autohomeweixin,1476835227,1,6,100001,1170,4,1477209934,580c6f4efcd3d486b6a7c577
article_20161129_9.csv:autohomeweixin,1476403240,1,5,67228,762,34,1477209939,580c6f53fcd3d486b6a7c586
article_20161129_9.csv:autohomeweixin,1476403240,1,8,30498,823,12,1477209945,580c6f59fcd3d486b6a7c599
article_20161129_9.csv:autohomeweixin,1476403240,1,7,33538,217,18,1477209957,580c6f65fcd3d486b6a7c5c6
article_20161129_9.csv:autohomeweixin,1476403240,1,6,58992,451,17,1477209963,580c6f6bfcd3d486b6a7c5de
article_20161129_9.csv:autohomeweixin,1476403240,1,4,92301,954,37,1477209969,580c6f71fcd3d486b6a7c5ef
article_20161129_9.csv:autohomeweixin,1476403240,1,3,80313,358,50,1477209975,580c6f77fcd3d486b6a7c602
article_20161129_9.csv:autohomeweixin,1476403240,1,2,100001,775,27,1477209980,580c6f7cfcd3d486b6a7c613
article_20161129_9.csv:autohomeweixin,1476403240,1,1,100001,1108,50,1477209985,580c6f81fcd3d486b6a7c625
article_20161129_9.csv:autohomeweixin,1476504061,1,8,49058,1090,50,1477209990,580c6f86fcd3d486b6a7c637
article_20161129_9.csv:autohomeweixin,1476504061,1,7,70991,833,39,1477209998,580c6f8efcd3d486b6a7c64f
article_20161129_9.csv:autohomeweixin,1476504061,1,6,41521,268,4,1477210002,580c6f92fcd3d486b6a7c65e
article_20161129_9.csv:autohomeweixin,1476504061,1,5,49755,478,1,1477210006,580c6f96fcd3d486b6a7c66c
article_20161129_9.csv:autohomeweixin,1476504061,1,4,91063,1265,15,1477210010,580c6f9afcd3d486b6a7c67d
article_20161129_9.csv:autohomeweixin,1476504061,1,3,89307,612,26,1477210013,580c6f9dfcd3d486b6a7c68c
article_20161129_9.csv:autohomeweixin,1476504061,1,2,70208,712,50,1477210025,580c6fa9fcd3d486b6a7c6b9
article_20161129_9.csv:autohomeweixin,1476504061,1,1,100001,1994,50,1477210032,580c6fb0fcd3d486b6a7c6d3
article_20161129_9.csv:autohomeweixin,1476590878,1,8,42263,486,23,1477210040,580c6fb8fcd3d486b6a7c6ee
article_20161129_9.csv:autohomeweixin,1476590878,1,7,45714,521,31,1477210045,580c6fbdfcd3d486b6a7c700
article_20161129_9.csv:autohomeweixin,1476590878,1,6,41623,206,6,1477210050,580c6fc2fcd3d486b6a7c710
article_20161129_9.csv:autohomeweixin,1476590878,1,5,55912,524,12,1477210061,580c6fcdfcd3d486b6a7c736
article_20161129_9.csv:autohomeweixin,1476590878,1,4,100001,267,40,1477210066,580c6fd2fcd3d486b6a7c747
article_20161129_9.csv:autohomeweixin,1476590878,1,3,100001,783,50,1477210072,580c6fd8fcd3d486b6a7c75a
article_20161129_9.csv:autohomeweixin,1476590878,1,2,100001,913,4,1477210076,580c6fdcfcd3d486b6a7c769
article_20161129_9.csv:autohomeweixin,1476590878,1,1,100001,991,36,1477210080,580c6fe0fcd3d486b6a7c778
article_20161129_9.csv:autohomeweixin,1476662612,1,8,66707,841,50,1477210086,580c6fe6fcd3d486b6a7c791
article_20161129_9.csv:autohomeweixin,1476662612,1,7,42067,527,0,1477210090,580c6feafcd3d486b6a7c79d
article_20161129_9.csv:autohomeweixin,1476662612,1,6,38002,560,22,1477210094,580c6feefcd3d486b6a7c7a6
article_20161129_9.csv:autohomeweixin,1476662612,1,5,100001,4295,50,1477210098,580c6ff2fcd3d486b6a7c7ad
article_20161129_9.csv:autohomeweixin,1476662612,1,4,80613,590,40,1477210103,580c6ff7fcd3d486b6a7c7ba
article_20161129_9.csv:autohomeweixin,1476662612,1,3,74938,636,20,1477210108,580c6ffcfcd3d486b6a7c7c7
article_20161129_9.csv:autohomeweixin,1476662612,1,2,38980,186,50,1477210112,580c7000fcd3d486b6a7c7d2
article_20161129_9.csv:autohomeweixin,1476662612,1,1,100001,4336,50,1477210122,580c700afcd3d486b6a7c7e8
article_20161129_9.csv:autohomeweixin,1476749084,1,8,58483,1031,24,1477210129,580c7011fcd3d486b6a7c7fe
article_20161129_9.csv:autohomeweixin,1476749084,1,7,49451,170,20,1477210133,580c7015fcd3d486b6a7c804
article_20161129_9.csv:autohomeweixin,1476749084,1,6,84095,721,21,1477210138,580c701afcd3d486b6a7c814
article_20161129_9.csv:autohomeweixin,1476749084,1,5,73001,922,14,1477210142,580c701efcd3d486b6a7c81f
article_20161129_9.csv:autohomeweixin,1476749084,1,4,86218,839,22,1477210151,580c7027fcd3d486b6a7c833
article_20161129_9.csv:autohomeweixin,1476749084,1,3,100001,858,46,1477210154,580c702afcd3d486b6a7c83c
article_20161129_9.csv:autohomeweixin,1476749084,1,2,100001,1238,16,1477210170,580c703afcd3d486b6a7c861
article_20161129_9.csv:autohomeweixin,1476749084,1,1,100001,1043,50,1477210175,580c703ffcd3d486b6a7c86f
article_20161129_9.csv:autohomeweixin,1476835227,1,8,49883,439,5,1477210179,580c7043fcd3d486b6a7c879
article_20161129_9.csv:autohomeweixin,1476835227,1,7,88682,2006,19,1477210184,580c7048fcd3d486b6a7c882
article_20161129_9.csv:autohomeweixin,1476835227,1,5,72267,501,5,1477210188,580c704cfcd3d486b6a7c88e
article_20161129_9.csv:autohomeweixin,1476835227,1,4,100001,785,18,1477210193,580c7051fcd3d486b6a7c898
article_20161129_9.csv:autohomeweixin,1476835227,1,3,100001,839,37,1477210203,580c705bfcd3d486b6a7c8b2
article_20161129_9.csv:autohomeweixin,1476835227,1,2,100001,971,5,1477210208,580c7060fcd3d486b6a7c8c0
article_20161129_9.csv:autohomeweixin,1476835227,1,1,100001,1679,50,1477210212,580c7064fcd3d486b6a7c8ce
article_20161129_9.csv:autohomeweixin,1476922383,1,8,52200,840,3,1477210216,580c7068fcd3d486b6a7c8db
article_20161129_9.csv:autohomeweixin,1477526488,1,1,83857,709,0,1477528639,58114c3ffcd3d486b6ad9465
article_20161129_9.csv:autohomeweixin,1477267723,1,3,50021,762,50,1477528642,58114c42fcd3d486b6ad946c
article_20161129_9.csv:autohomeweixin,1477267723,1,2,100001,1359,15,1477528645,58114c45fcd3d486b6ad9472
article_20161129_9.csv:autohomeweixin,1477267723,1,1,100001,4832,50,1477528652,58114c4cfcd3d486b6ad947d
article_20161129_9.csv:autohomeweixin,1477353721,1,8,42616,567,36,1477528656,58114c50fcd3d486b6ad9481
article_20161129_9.csv:autohomeweixin,1477353721,1,7,44063,296,6,1477528659,58114c53fcd3d486b6ad9486
article_20161129_9.csv:autohomeweixin,1477353721,1,6,69109,873,27,1477528661,58114c55fcd3d486b6ad948a
article_20161129_9.csv:autohomeweixin,1477353721,1,5,82369,458,26,1477528664,58114c58fcd3d486b6ad948f
article_20161129_9.csv:autohomeweixin,1477353721,1,4,56302,432,13,1477528667,58114c5bfcd3d486b6ad9494
article_20161129_9.csv:autohomeweixin,1477353721,1,3,96027,733,50,1477528676,58114c64fcd3d486b6ad94a0
article_20161129_9.csv:autohomeweixin,1477353721,1,2,100001,785,50,1477528679,58114c67fcd3d486b6ad94a5
article_20161129_9.csv:autohomeweixin,1477353721,1,1,100001,1639,50,1477528682,58114c6afcd3d486b6ad94ac
article_20161129_9.csv:autohomeweixin,1477440074,1,8,66460,381,50,1477528686,58114c6efcd3d486b6ad94b2
article_20161129_9.csv:autohomeweixin,1477440074,1,7,79937,6558,50,1477528690,58114c72fcd3d486b6ad94b7
article_20161129_9.csv:autohomeweixin,1477440074,1,6,43355,315,29,1477528693,58114c75fcd3d486b6ad94bc
article_20161129_9.csv:autohomeweixin,1477440074,1,5,47332,495,36,1477528695,58114c77fcd3d486b6ad94c1
article_20161129_9.csv:autohomeweixin,1477440074,1,4,75951,845,50,1477528698,58114c7afcd3d486b6ad94c7
article_20161129_9.csv:autohomeweixin,1477440074,1,3,84688,485,50,1477528701,58114c7dfcd3d486b6ad94cf
article_20161129_9.csv:autohomeweixin,1477440074,1,2,100001,2088,44,1477528704,58114c80fcd3d486b6ad94d6
article_20161129_9.csv:autohomeweixin,1477440074,1,1,100001,966,50,1477528708,58114c84fcd3d486b6ad94db
article_20161129_9.csv:autohomeweixin,1477526488,1,8,5328,99,0,1477528712,58114c88fcd3d486b6ad94e2
article_20161129_9.csv:autohomeweixin,1477526488,1,7,7750,71,0,1477528715,58114c8bfcd3d486b6ad94e5
article_20161129_9.csv:autohomeweixin,1477526488,1,6,16645,324,0,1477528717,58114c8dfcd3d486b6ad94e8
article_20161129_9.csv:autohomeweixin,1477526488,1,5,11823,89,0,1477528720,58114c90fcd3d486b6ad94ea
article_20161129_9.csv:autohomeweixin,1477526488,1,4,23499,169,0,1477528723,58114c93fcd3d486b6ad94eb
article_20161129_9.csv:autohomeweixin,1477526488,1,3,19298,276,0,1477528725,58114c95fcd3d486b6ad94ee
article_20161129_9.csv:autohomeweixin,1477526488,1,2,13384,295,0,1477528729,58114c99fcd3d486b6ad94ef
article_20161129_9.csv:autohomeweixin,1477267723,1,8,65324,755,34,1477528733,58114c9dfcd3d486b6ad94f2
article_20161129_9.csv:autohomeweixin,1477267723,1,7,100001,831,50,1477528736,58114ca0fcd3d486b6ad94f4
article_20161129_9.csv:autohomeweixin,1477267723,1,6,31812,222,34,1477528739,58114ca3fcd3d486b6ad94f6
article_20161129_9.csv:autohomeweixin,1477267723,1,5,39411,206,0,1477528742,58114ca6fcd3d486b6ad94f8
article_20161129_9.csv:autohomeweixin,1477267723,1,4,100001,918,50,1477528744,58114ca8fcd3d486b6ad94f9
article_20161202.csv:autohomeweixin,1480550607,1,1,100001,4596,50,1480659841,584114420c5d551bebd136cf,287648
article_20161202.csv:autohomeweixin,1480637011,1,8,40863,656,37,1480659868,5841145b0c5d551bebd136f1,287700
article_20161202.csv:autohomeweixin,1479859333,1,7,81009,407,19,1480659890,584114720c5d551bebd13715,287750
article_20161202.csv:autohomeweixin,1479859333,1,5,100001,1731,50,1480659935,5841149f0c5d551bebd1373d,287808
article_20161202.csv:autohomeweixin,1480637011,1,6,100001,1556,45,1480659962,584114b90c5d551bebd1375b,287848
article_20161202.csv:autohomeweixin,1479859333,1,3,100001,956,50,1480659990,584114d60c5d551bebd1377e,287898
article_20161202.csv:autohomeweixin,1480637011,1,4,100001,354,50,1480660016,584114ef0c5d551bebd137a2,287943
article_20161202.csv:autohomeweixin,1479859333,1,1,100001,3108,50,1480660042,5841150a0c5d551bebd137bc,287987
article_20161202.csv:autohomeweixin,1480637011,1,2,94070,893,50,1480660067,584115230c5d551bebd137de,288034
article_20161202.csv:autohomeweixin,1479945913,1,8,72040,964,38,1480660109,5841154d0c5d551bebd13810,288099
article_20161202.csv:autohomeweixin,1480291223,1,1,100001,6676,50,1480660136,584115670c5d551bebd13834,288153
article_20161202.csv:autohomeweixin,1479859333,1,4,100001,2682,50,1480660163,584115830c5d551bebd13852,288199
article_20161202.csv:autohomeweixin,1480377637,1,7,100001,696,50,1480660215,584115b70c5d551bebd1388c,288266
article_20161202.csv:autohomeweixin,1480377637,1,5,100001,4582,50,1480660242,584115d20c5d551bebd138a8,288308
article_20161202.csv:autohomeweixin,1479945913,1,5,100001,957,50,1480660265,584115e90c5d551bebd138cb,288357
article_20161202.csv:autohomeweixin,1480377637,1,3,100001,536,49,1480660300,5841160b0c5d551bebd13900,288426
article_20161202.csv:autohomeweixin,1479945913,1,4,100001,802,50,1480660323,584116230c5d551bebd13924,288477
article_20161202.csv:autohomeweixin,1480377637,1,1,100001,4201,50,1480660349,5841163c0c5d551bebd13943,288515
article_20161202.csv:autohomeweixin,1479859333,1,6,100001,631,37,1480660434,584116920c5d551bebd139a0,288641
article_20161202.csv:autohomeweixin,1480466533,1,8,58686,419,50,1480660459,584116aa0c5d551bebd139ba,288684
article_20161202.csv:autohomeweixin,1480466533,1,7,74545,1073,50,1480660526,584116ee0c5d551bebd13a0b,288793
article_20161202.csv:autohomeweixin,1479945913,1,1,100001,1286,50,1480660550,584117050c5d551bebd13a2d,288839
article_20161202.csv:autohomeweixin,1479945913,1,7,100001,554,50,1480660575,5841171e0c5d551bebd13a48,288881
article_20161202.csv:autohomeweixin,1480034592,1,8,80849,657,50,1480660603,5841173a0c5d551bebd13a69,288933
article_20161202.csv:autohomeweixin,1480466533,1,5,100001,825,45,1480660627,584117530c5d551bebd13a87,288972
article_20161202.csv:autohomeweixin,1480034592,1,7,89595,1014,50,1480660651,5841176b0c5d551bebd13aa5,289015
article_20161202.csv:autohomeweixin,1480466533,1,3,100001,1037,50,1480660678,584117850c5d551bebd13ac7,289062
article_20161202.csv:autohomeweixin,1479945913,1,6,100001,1255,50,1480660705,584117a00c5d551bebd13adc,289095
article_20161202.csv:autohomeweixin,1480466533,1,1,100001,8679,50,1480660731,584117bb0c5d551bebd13afc,289139
article_20161202.csv:autohomeweixin,1480034592,1,5,100001,576,50,1480660774,584117e60c5d551bebd13b28,289192
article_20161202.csv:autohomeweixin,1480550607,1,7,94087,486,50,1480660803,584118030c5d551bebd13b45,289231
article_20161202.csv:autohomeweixin,1480034592,1,4,100001,664,50,1480660832,584118200c5d551bebd13b68,289279
article_20161202.csv:autohomeweixin,1479945913,1,3,100001,1458,50,1480660858,584118390c5d551bebd13b80,289310
article_20161202.csv:autohomeweixin,1480550607,1,5,79152,734,50,1480660881,584118510c5d551bebd13b9c,289352
article_20161202.csv:autohomeweixin,1480034592,1,1,100001,10803,50,1480660910,5841186d0c5d551bebd13bc5,289408
article_20161202.csv:autohomeweixin,1480550607,1,3,100001,1844,50,1480660934,584118860c5d551bebd13bdf,289449
article_20161202.csv:autohomeweixin,1480637011,1,5,100001,791,50,1480660962,584118a20c5d551bebd13bff,289496
article_20161202.csv:autohomeweixin,1480132878,1,8,100001,2204,50,1480660986,584118ba0c5d551bebd13c1d,289542
article_20161202.csv:autohomeweixin,1480637011,1,1,100001,3661,50,1480661009,584118d10c5d551bebd13c39,289584
article_20161202.csv:autohomeweixin,1479859333,1,8,100001,382,21,1480663651,584123220c5d551bebd14981,294904
article_20161202.csv:autohomeweixin,1480637011,1,3,67188,860,50,1480663731,584123730c5d551bebd149d8,295047
article_20161202.csv:autohomeweixin,1479859333,1,2,100001,4167,50,1480663759,5841238e0c5d551bebd149fe,295117
article_20161202.csv:autohomeweixin,1480377637,1,8,77064,782,46,1480663789,584123ad0c5d551bebd14a29,295191
article_20161202.csv:autohomeweixin,1480377637,1,6,76074,660,50,1480663835,584123db0c5d551bebd14a5d,295288
article_20161202.csv:autohomeweixin,1480377637,1,4,100001,1385,39,1480663871,584123fe0c5d551bebd14a86,295361
article_20161202.csv:autohomeweixin,1479945913,1,2,100001,1147,50,1480663908,584124240c5d551bebd14ab2,295444
article_20161202.csv:autohomeweixin,1480377637,1,2,100001,3203,50,1480663935,5841243e0c5d551bebd14ad4,295503
article_20161202.csv:autohomeweixin,1480034592,1,6,100001,953,50,1480663979,5841246b0c5d551bebd14b0a,295602
article_20161202.csv:autohomeweixin,1480466533,1,6,100001,646,31,1480664004,584124840c5d551bebd14b27,295658
article_20161202.csv:autohomeweixin,1480466533,1,4,100001,1077,50,1480664041,584124a90c5d551bebd14b5a,295749
article_20161202.csv:autohomeweixin,1480034592,1,3,99694,636,35,1480664070,584124c60c5d551bebd14b84,295826
article_20161202.csv:autohomeweixin,1480466533,1,2,100001,371,50,1480664093,584124dd0c5d551bebd14ba0,295879
article_20161202.csv:autohomeweixin,1480034592,1,2,100001,1387,50,1480664116,584124f40c5d551bebd14bbf,295935
article_20161202.csv:autohomeweixin,1480550607,1,8,60662,618,37,1480664160,584125200c5d551bebd14bf7,296031
article_20161202.csv:autohomeweixin,1480132878,1,7,100001,2142,50,1480664184,584125380c5d551bebd14c15,296082
article_20161202.csv:autohomeweixin,1480550607,1,6,100001,774,50,1480664210,584125520c5d551bebd14c38,296147
article_20161202.csv:autohomeweixin,1480132878,1,6,100001,887,50,1480664239,5841256e0c5d551bebd14c57,296200
article_20161202.csv:autohomeweixin,1480550607,1,4,86970,869,50,1480664262,584125850c5d551bebd14c74,296252
article_20161202.csv:autohomeweixin,1480132878,1,4,100001,1332,12,1480664284,5841259c0c5d551bebd14c96,296307
article_20161202.csv:autohomeweixin,1480132878,1,2,100001,747,36,1480664307,584125b30c5d551bebd14cb4,296360
article_20161202.csv:autohomeweixin,1480550607,1,2,100001,3262,50,1480664330,584125ca0c5d551bebd14cd3,296415
article_20161202.csv:autohomeweixin,1480637011,1,7,51072,595,47,1480664353,584125e10c5d551bebd14cee,296467
article_20161202.csv:autohomeweixin,1480219485,1,8,80910,1807,50,1480664376,584125f80c5d551bebd14d0a,296523
article_20161202.csv:autohomeweixin,1480219485,1,6,100001,1488,11,1480664400,584126100c5d551bebd14d29,296567
article_20161202.csv:autohomeweixin,1480219485,1,5,100001,1260,24,1480664426,584126290c5d551bebd14d49,296627
article_20161202.csv:autohomeweixin,1480219485,1,4,100001,761,50,1480664448,584126400c5d551bebd14d67,296678
article_20161202.csv:autohomeweixin,1480219485,1,2,100001,1396,43,1480664480,584126600c5d551bebd14d96,296763
article_20161202.csv:autohomeweixin,1480291223,1,8,100001,2442,50,1480664504,584126780c5d551bebd14dbb,296822
article_20161202.csv:autohomeweixin,1480291223,1,6,100001,481,50,1480664530,584126920c5d551bebd14de1,296881
article_20161202.csv:autohomeweixin,1480291223,1,7,100001,1117,31,1480664552,584126a80c5d551bebd14dff,296930
article_20161202.csv:autohomeweixin,1480291223,1,4,100001,580,50,1480664579,584126c30c5d551bebd14e20,296985
article_20161202.csv:autohomeweixin,1480291223,1,3,100001,1042,50,1480664602,584126da0c5d551bebd14e3b,297035
article_20161202.csv:autohomeweixin,1480291223,1,2,100001,2810,50,1480664658,584127110c5d551bebd14e73,297121
article_20161202.csv:autohomeweixin,1480132878,1,5,100001,1907,50,1480664688,5841272f0c5d551bebd14e8c,297183
article_20161202.csv:autohomeweixin,1480132878,1,3,100001,1167,38,1480664713,584127490c5d551bebd14eaa,297233
article_20161202.csv:autohomeweixin,1480132878,1,1,100001,2957,50,1480664737,584127600c5d551bebd14ec7,297286
article_20161202.csv:autohomeweixin,1480219485,1,7,100001,2721,34,1480664760,584127770c5d551bebd14ee0,297337
article_20161202.csv:autohomeweixin,1480219485,1,3,100001,1089,50,1480664784,584127900c5d551bebd14efb,297387
article_20161213.csv:autohomeweixin,1481501113,1,1,100001,701,50,1481599628,584f6b6e0c5d551bebe9340f,2755608
article_20161213.csv:autohomeweixin,1480824142,1,8,100001,1085,50,1481599658,584f6b8a0c5d551bebe934a8,2755700
article_20161213.csv:autohomeweixin,1481587395,1,7,70217,412,48,1481599680,584f6ba00c5d551bebe93529,2755777
article_20161213.csv:autohomeweixin,1480824142,1,6,100001,2941,32,1481599703,584f6bb70c5d551bebe935aa,2755871
article_20161213.csv:autohomeweixin,1481587395,1,6,70965,303,9,1481599726,584f6bce0c5d551bebe93626,2755954
article_20161213.csv:autohomeweixin,1480824142,1,5,100001,1752,50,1481599748,584f6be40c5d551bebe93689,2756032
article_20161213.csv:autohomeweixin,1480824142,1,4,100001,950,12,1481599774,584f6bfe0c5d551bebe93719,2756117
article_20161213.csv:autohomeweixin,1481587395,1,5,97826,1597,18,1481599797,584f6c150c5d551bebe9379f,2756205
article_20161213.csv:autohomeweixin,1480824142,1,7,100001,1418,49,1481599821,584f6c2d0c5d551bebe93819,2756290
article_20161213.csv:autohomeweixin,1481587395,1,3,100001,899,50,1481599844,584f6c440c5d551bebe93892,2756380
article_20161213.csv:autohomeweixin,1480824142,1,2,100001,1175,31,1481599867,584f6c5b0c5d551bebe93911,2756463
article_20161213.csv:autohomeweixin,1481587395,1,2,75699,247,33,1481599893,584f6c750c5d551bebe93991,2756563
article_20161213.csv:autohomeweixin,1480824142,1,1,100001,2387,50,1481599918,584f6c8e0c5d551bebe93a05,2756654
article_20161213.csv:autohomeweixin,1481587395,1,1,100001,7224,50,1481599941,584f6ca50c5d551bebe93a7b,2756744
article_20161213.csv:autohomeweixin,1481241778,1,1,100001,2738,50,1481599969,584f6cc10c5d551bebe93b08,2756846
article_20161213.csv:autohomeweixin,1480896212,1,7,100001,2265,50,1481599992,584f6cd80c5d551bebe93b79,2756923
article_20161213.csv:autohomeweixin,1481342644,1,7,69044,610,13,1481600021,584f6cf50c5d551bebe93bfc,2757017
article_20161213.csv:autohomeweixin,1480896212,1,5,100001,749,50,1481600046,584f6d0e0c5d551bebe93c81,2757105
article_20161213.csv:autohomeweixin,1480824142,1,3,100001,877,42,1481600069,584f6d250c5d551bebe93d08,2757187
article_20161213.csv:autohomeweixin,1481342644,1,6,100001,3077,34,1481600099,584f6d430c5d551bebe93d90,2757283
article_20161213.csv:autohomeweixin,1480896212,1,4,100001,1473,50,1481600122,584f6d5a0c5d551bebe93df6,2757353
article_20161213.csv:autohomeweixin,1481342644,1,5,100001,739,31,1481600145,584f6d710c5d551bebe93e72,2757430
article_20161213.csv:autohomeweixin,1480896212,1,2,100001,5428,50,1481600168,584f6d880c5d551bebe93ef3,2757516
article_20161213.csv:autohomeweixin,1481342644,1,3,100001,751,27,1481600191,584f6d9f0c5d551bebe93f77,2757596
article_20161213.csv:autohomeweixin,1480896212,1,1,100001,2441,50,1481600214,584f6db60c5d551bebe93fe7,2757683
article_20161213.csv:autohomeweixin,1481342644,1,2,100001,1361,50,1481600237,584f6dcd0c5d551bebe94062,2757769
article_20161213.csv:autohomeweixin,1480982435,1,8,100001,2125,50,1481600261,584f6de50c5d551bebe940e2,2757858
article_20161213.csv:autohomeweixin,1481342644,1,1,100001,4017,50,1481600284,584f6dfc0c5d551bebe9415e,2757931
article_20161213.csv:autohomeweixin,1481429260,1,7,100001,1420,6,1481600306,584f6e120c5d551bebe941dd,2758013
article_20161213.csv:autohomeweixin,1480896212,1,8,84074,520,50,1481600342,584f6e360c5d551bebe942a5,2758134
article_20161213.csv:autohomeweixin,1480982435,1,6,100001,1948,20,1481600365,584f6e4d0c5d551bebe9432a,2758219
article_20161213.csv:autohomeweixin,1481429260,1,6,100001,1123,31,1481600388,584f6e640c5d551bebe943a8,2758294
article_20161213.csv:autohomeweixin,1481429260,1,5,100001,412,17,1481600410,584f6e7a0c5d551bebe94428,2758368
article_20161213.csv:autohomeweixin,1480982435,1,5,100001,2101,50,1481600433,584f6e910c5d551bebe944ab,2758448
article_20161213.csv:autohomeweixin,1481429260,1,3,100001,948,31,1481600467,584f6eb30c5d551bebe94562,2758572
article_20161213.csv:autohomeweixin,1480982435,1,4,100001,1655,50,1481600491,584f6ecb0c5d551bebe945f3,2758662
article_20161213.csv:autohomeweixin,1481429260,1,1,100001,6284,50,1481600519,584f6ee70c5d551bebe94685,2758757
article_20161213.csv:autohomeweixin,1480982435,1,2,100001,2387,50,1481600542,584f6efe0c5d551bebe94701,2758835
article_20161213.csv:autohomeweixin,1481068720,1,8,100001,934,50,1481600566,584f6f160c5d551bebe94797,2758923
article_20161213.csv:autohomeweixin,1481501113,1,7,100001,792,14,1481600588,584f6f2c0c5d551bebe9481a,2759014
article_20161213.csv:autohomeweixin,1481068720,1,7,100001,722,29,1481600611,584f6f430c5d551bebe9489a,2759090
article_20161213.csv:autohomeweixin,1481501113,1,6,100001,735,50,1481600634,584f6f5a0c5d551bebe9490f,2759173
article_20161213.csv:autohomeweixin,1481501113,1,5,100001,1555,50,1481600657,584f6f710c5d551bebe9498d,2759268
article_20161213.csv:autohomeweixin,1480896212,1,3,100001,702,50,1481600680,584f6f880c5d551bebe94a02,2759361
article_20161213.csv:autohomeweixin,1481068720,1,5,100001,1718,50,1481600703,584f6f9f0c5d551bebe94a83,2759441
article_20161213.csv:autohomeweixin,1481587395,1,8,42663,519,41,1481600730,584f6fba0c5d551bebe94b12,2759537
article_20161213.csv:autohomeweixin,1481587395,1,4,75348,403,16,1481600752,584f6fd00c5d551bebe94b7e,2759611
article_20161213.csv:autohomeweixin,1481241778,1,2,100001,550,30,1481600775,584f6fe70c5d551bebe94bf1,2759689
article_20161213.csv:autohomeweixin,1481068720,1,3,100001,956,25,1481600798,584f6ffe0c5d551bebe94c75,2759779
article_20161219.csv:autohomeweixin,1481501113,1,1,100001,701,50,1481599628,584f6b6e0c5d551bebe9340f,2755608
article_20161219.csv:autohomeweixin,1480824142,1,8,100001,1085,50,1481599658,584f6b8a0c5d551bebe934a8,2755700
article_20161219.csv:autohomeweixin,1481587395,1,7,70217,412,48,1481599680,584f6ba00c5d551bebe93529,2755777
article_20161219.csv:autohomeweixin,1480824142,1,6,100001,2941,32,1481599703,584f6bb70c5d551bebe935aa,2755871
article_20161219.csv:autohomeweixin,1481587395,1,6,70965,303,9,1481599726,584f6bce0c5d551bebe93626,2755954
article_20161219.csv:autohomeweixin,1480824142,1,5,100001,1752,50,1481599748,584f6be40c5d551bebe93689,2756032
article_20161219.csv:autohomeweixin,1480824142,1,4,100001,950,12,1481599774,584f6bfe0c5d551bebe93719,2756117
article_20161219.csv:autohomeweixin,1481587395,1,5,97826,1597,18,1481599797,584f6c150c5d551bebe9379f,2756205
article_20161219.csv:autohomeweixin,1480824142,1,7,100001,1418,49,1481599821,584f6c2d0c5d551bebe93819,2756290
article_20161219.csv:autohomeweixin,1481587395,1,3,100001,899,50,1481599844,584f6c440c5d551bebe93892,2756380
article_20161219.csv:autohomeweixin,1480824142,1,2,100001,1175,31,1481599867,584f6c5b0c5d551bebe93911,2756463
article_20161219.csv:autohomeweixin,1481587395,1,2,75699,247,33,1481599893,584f6c750c5d551bebe93991,2756563
article_20161219.csv:autohomeweixin,1480824142,1,1,100001,2387,50,1481599918,584f6c8e0c5d551bebe93a05,2756654
article_20161219.csv:autohomeweixin,1481587395,1,1,100001,7224,50,1481599941,584f6ca50c5d551bebe93a7b,2756744
article_20161219.csv:autohomeweixin,1481241778,1,1,100001,2738,50,1481599969,584f6cc10c5d551bebe93b08,2756846
article_20161219.csv:autohomeweixin,1480896212,1,7,100001,2265,50,1481599992,584f6cd80c5d551bebe93b79,2756923
article_20161219.csv:autohomeweixin,1481342644,1,7,69044,610,13,1481600021,584f6cf50c5d551bebe93bfc,2757017
article_20161219.csv:autohomeweixin,1480896212,1,5,100001,749,50,1481600046,584f6d0e0c5d551bebe93c81,2757105
article_20161219.csv:autohomeweixin,1480824142,1,3,100001,877,42,1481600069,584f6d250c5d551bebe93d08,2757187
article_20161219.csv:autohomeweixin,1481342644,1,6,100001,3077,34,1481600099,584f6d430c5d551bebe93d90,2757283
article_20161219.csv:autohomeweixin,1480896212,1,4,100001,1473,50,1481600122,584f6d5a0c5d551bebe93df6,2757353
article_20161219.csv:autohomeweixin,1481342644,1,5,100001,739,31,1481600145,584f6d710c5d551bebe93e72,2757430
article_20161219.csv:autohomeweixin,1480896212,1,2,100001,5428,50,1481600168,584f6d880c5d551bebe93ef3,2757516
article_20161219.csv:autohomeweixin,1481342644,1,3,100001,751,27,1481600191,584f6d9f0c5d551bebe93f77,2757596
article_20161219.csv:autohomeweixin,1480896212,1,1,100001,2441,50,1481600214,584f6db60c5d551bebe93fe7,2757683
article_20161219.csv:autohomeweixin,1481342644,1,2,100001,1361,50,1481600237,584f6dcd0c5d551bebe94062,2757769
article_20161219.csv:autohomeweixin,1480982435,1,8,100001,2125,50,1481600261,584f6de50c5d551bebe940e2,2757858
article_20161219.csv:autohomeweixin,1481342644,1,1,100001,4017,50,1481600284,584f6dfc0c5d551bebe9415e,2757931
article_20161219.csv:autohomeweixin,1481429260,1,7,100001,1420,6,1481600306,584f6e120c5d551bebe941dd,2758013
article_20161219.csv:autohomeweixin,1480896212,1,8,84074,520,50,1481600342,584f6e360c5d551bebe942a5,2758134
article_20161219.csv:autohomeweixin,1480982435,1,6,100001,1948,20,1481600365,584f6e4d0c5d551bebe9432a,2758219
article_20161219.csv:autohomeweixin,1481429260,1,6,100001,1123,31,1481600388,584f6e640c5d551bebe943a8,2758294
article_20161219.csv:autohomeweixin,1481429260,1,5,100001,412,17,1481600410,584f6e7a0c5d551bebe94428,2758368
article_20161219.csv:autohomeweixin,1480982435,1,5,100001,2101,50,1481600433,584f6e910c5d551bebe944ab,2758448
article_20161219.csv:autohomeweixin,1481429260,1,3,100001,948,31,1481600467,584f6eb30c5d551bebe94562,2758572
article_20161219.csv:autohomeweixin,1480982435,1,4,100001,1655,50,1481600491,584f6ecb0c5d551bebe945f3,2758662
article_20161219.csv:autohomeweixin,1481429260,1,1,100001,6284,50,1481600519,584f6ee70c5d551bebe94685,2758757
article_20161219.csv:autohomeweixin,1480982435,1,2,100001,2387,50,1481600542,584f6efe0c5d551bebe94701,2758835
article_20161219.csv:autohomeweixin,1481068720,1,8,100001,934,50,1481600566,584f6f160c5d551bebe94797,2758923
article_20161219.csv:autohomeweixin,1481501113,1,7,100001,792,14,1481600588,584f6f2c0c5d551bebe9481a,2759014
article_20161219.csv:autohomeweixin,1481068720,1,7,100001,722,29,1481600611,584f6f430c5d551bebe9489a,2759090
article_20161219.csv:autohomeweixin,1481501113,1,6,100001,735,50,1481600634,584f6f5a0c5d551bebe9490f,2759173
article_20161219.csv:autohomeweixin,1481501113,1,5,100001,1555,50,1481600657,584f6f710c5d551bebe9498d,2759268
article_20161219.csv:autohomeweixin,1480896212,1,3,100001,702,50,1481600680,584f6f880c5d551bebe94a02,2759361
article_20161219.csv:autohomeweixin,1481068720,1,5,100001,1718,50,1481600703,584f6f9f0c5d551bebe94a83,2759441
article_20161219.csv:autohomeweixin,1481587395,1,8,42663,519,41,1481600730,584f6fba0c5d551bebe94b12,2759537
article_20161219.csv:autohomeweixin,1481587395,1,4,75348,403,16,1481600752,584f6fd00c5d551bebe94b7e,2759611
article_20161219.csv:autohomeweixin,1481241778,1,2,100001,550,30,1481600775,584f6fe70c5d551bebe94bf1,2759689
article_20161219.csv:autohomeweixin,1481068720,1,3,100001,956,25,1481600798,584f6ffe0c5d551bebe94c75,2759779
