{
    "_id" : "593f8526815cd6f576ab024d",
    "company_home_page" : "http://www.maigoo.com/maigoocms/special/ztjiaju/108mnls.html", //公司招商等信息页
    "brand_cate" : [  //品牌所属分类
        {
            "cate_name" : "地板/瓷砖",
            "sup_catid" : "7",
            "catid" : "58",
            "sup_cate_name" : "家居建材五金"
        }
    ],
    "company_phone" : "电话：0757-86822683,86820322", //公司联系方式
    "company_products" : [  //公司产品
        "瓷砖/地板砖", 
        "抛光砖", 
        "陶瓷薄板", 
        "大理石瓷砖", 
        "釉面砖", 
        "通体砖"
    ],
    "company" : "蒙娜丽莎集团股份有限公司", //公司名称
    "brand_name_cn" : "蒙娜丽莎瓷砖",   //品牌中文名称  
    "brand_name_en" : "未知",   //品牌英文名称
    "company_desc" : "成立于1999年,广东省著名商标,广东名牌,瓷砖行业标准制定单位,薄瓷板和无机轻质板享有盛誉,蒙娜丽莎集团股份有限公司", //公司简介
    "company_logo" : "http://image.cnpp.cn/upload/images/20170420/20570642668_207x90.gif_138_60.jpg" //公司logo
}
{
    "classify_cn":"",
    "classify_py":"",
    "sub_classify_cn":"",
    "sub_classify_py":"",
    "file_name_cn":"",
    "file_name_py":"",
    "words":{"word":"",
            "frequencies":"",}
}


// 备注：company & name_cn 做为联合主键


{
    "public_id":"",
    "brand_segment":{
        
    }
}