{
    "_id" : "59489ddde138234201ebacd0",     //mongodb object_id
    "classify_cn" : "北京",   //分类名称
    "file_name_py" : "beijingshichengshixinxijingxuan", //文件名称拼音
    "words" : [     //词语
        "七彩霓虹灯厂", 
        "七渡孤山寨", 
        "万州烤全鱼", 
        "万春园别墅", 
        "万达旅馆", 
        "三千浦烧烤城", 
        "三友汽修", 
        "三各庄村", 
        "三峡酒楼", 
        "三建四分公司", 
        "三角地旅馆", 
    ],
    "file_name_cn" : "北京市城市信息精选",   //文件名称
    "classify_py" : "beijing",  //分类名称拼音
    "sup_classify_cn" : "城市信息大全",   //父类名称
    "sup_classify_py" : "chengshixinxidaquan"   //父类名称拼音
}